# Wavefront MTL file
# Creator: Ultimate Unwrap3D Pro v3.38
# URL: http://www.unwrap3d.com
# Time: Sat Sep 08 19:44:56 2012
# num_materials: 1

newmtl guardmat
Ka 0.000000 0.000000 0.000000
Kd 1.000000 1.000000 1.000000
Ks 0.000000 0.000000 0.000000
d 1.000000
illum 2
Ns 0.000000
map_Kd guard_tex.png
map_Bump guard_NM.png

# num_materials: 1
