# Wavefront MTL file
# Creator: Ultimate Unwrap3D Pro v3.44
# URL: http://www.unwrap3d.com
# Time: Mon May 27 11:09:43 2013
# num_materials: 1

newmtl ogremat
Ka 0.000000 0.000000 0.000000
Kd 1.000000 1.000000 1.000000
Ks 0.000000 0.000000 0.000000
d 1.000000
illum 2
Ns 0.000000
map_Kd ogre_tex.png
map_Bump ogre_NM.png

# num_materials: 1
