Teorie (4p):
 
1. Sincronizare cu semafoare
2. Cuplati o memorie EPROM in spatiul 768 : 768 + 128 K
3. Cuplati 4 porturi de IN si 4 de out in spatiul 58 - 5F
4. Cuplati o memorie RAM statica de 64 KB dar nu mai stiu la ce spatiu
5. Lucrul cu intreruperi la 8086
6. UAL la microcontrollerul din lab
7. Cuplare DMA
8. Logica de arbitrare DMA + microprocesor. Principiu + schema
9. Modalitati de initializare ale sistemului
10. Descrieti calcul pe care doriti sa lucrati
 
Problema (1p):
 
Se dadea un procesor cu mag de date pe 8 biti si mag de adrese pe 16 biti si cu semnalele WR, RD, WAIT si INT
 
a) Sa se cupleze o mem ROM de 8KB de la adresa 2000h (3p)
b) Sa se cupleze o mem RAM de 28 KB (blocuri cu celule elementare de 2^n) de la adresa 8000h (4p)
c) Nu mai stiu...avea 3p


de la 0 la cat e ...sram (cred ca nu a vrut sa se complice cu cas & ras & stuff)

chestia e ca tre sa stii cate linii de adresa are pentiumul (sper ca 32 :) )

On 1/31/06, ana-lucia radu <raduanalucia@yahoo.com> wrote:

    La ultimul subiect...de la 0 la xMb? Sau se specifica o valoare anume? Era SRAM sau DRAM?


    bogdan ardelenu < bogdan_abc33@yahoo.co.uk> wrote:

        PM 343+345 ...31 ian 2006

        th...50 min
        1. semafoare
        2. org spatiului de mem si I/O. comparatie (nush ce vroia sa compare)
        3. conectare ceas timp real (unde o fi asta prin curs...)
        4. descrieti calc de acasa (proc, ram, hdd etc)
        5. sist de intreruperi 8086
        6. eeprom : 256; 256+128k
        7.Karb (DMA)
        8.arhitectura 386
        9.8 porturi in shi out (parca..) la o adresa anume
        10. ? am uitat: Mapare memoria RAM 0-xMb
         
         
         


        Mihai Sandoiu <sandoiu.mihai@gmail.com > wrote:

            PM 343+345 ...31 ian 2006

            th...50 min
            1. semafoare
            2. org spatiului de mem si I/O. comparatie (nush ce vroia sa compare)
            3. conectare ceas timp real (unde o fi asta prin curs...)
            4. descrieti calc de acasa (proc, ram, hdd etc)
            5. sist de intreruperi 8086
            6. eeprom : 256; 256+128k
            7.Karb (DMA)
            8.arhitectura 386
            9.8 porturi in shi out (parca..) la o adresa anume
            10. ? am uitat
             



            problema,...cu cartile pe masa...40 min

            se da un proc pe 32 bitzi...
            1. sa se mapeze 2 MB de memorie din module de 256k (x8, deci se pun cate 4 in linie)...2p

            exista pe adr 0-1024 256 de intreruperi. ne concentram pe intr 2,3,4 (nu a zis de unde numaram)
            exista porturile pe 16 biti care incep de la 20h (adik 20, 22,24h cred).exista numaratoare pe 16 bitzi...
            cerinta nr 2: sa se genereze o NMI datorita Overflow (overflow in numarator oare ? sau unde ?)...3p

            3. sa se scrie la adresele porturilor 20h, (si cele 2 de dupa) ori de cate ori se declanseaza INT2,3,4 ...3p parca

            4. sa se reseteze numaratorul cand se CITESTE ceva de la porturile alea



            avand in vedere ca am fost impreuna cu 342 care dadea ssc, si altii care dadeau "AC" (de la automtizari cred)..
            in sala a fost un pic de haos ...

            succes !